…
``` r
size_sum(instacart)
```

    ## [1] "[1,384,617 × 15]"

``` r
structure(instacart)
```

    ## # A tibble: 1,384,617 × 15
    ##    order_id product_id add_to_cart_order reordered user_id eval_set order_number
    ##       <int>      <int>             <int>     <int>   <int> <chr>           <int>
    ##  1        1      49302                 1         1  112108 train               4
    ##  2        1      11109                 2         1  112108 train               4
    ##  3        1      10246                 3         0  112108 train               4
    ##  4        1      49683                 4         0  112108 train               4
    ##  5        1      43633                 5         1  112108 train               4
    ##  6        1      13176                 6         0  112108 train               4
    ##  7        1      47209                 7         0  112108 train               4
    ##  8        1      22035                 8         1  112108 train               4
    ##  9       36      39612                 1         0   79431 train              23
    ## 10       36      19660                 2         1   79431 train              23
    ## # … with 1,384,607 more rows, and 8 more variables: order_dow <int>,
    ## #   order_hour_of_day <int>, days_since_prior_order <int>, product_name <chr>,
    ## #   aisle_id <int>, department_id <int>, aisle <chr>, department <chr>
…
##### 1,How many aisles are there, and which aisles are the most items ordered from?

``` r
instacart %>%
  count(aisle) %>%
  arrange(desc(n))
```

    ## # A tibble: 134 × 2
    ##    aisle                              n
    ##    <chr>                          <int>
    ##  1 fresh vegetables              150609
    ##  2 fresh fruits                  150473
    ##  3 packaged vegetables fruits     78493
    ##  4 yogurt                         55240
    ##  5 packaged cheese                41699
    ##  6 water seltzer sparkling water  36617
    ##  7 milk                           32644
    ##  8 chips pretzels                 31269
    ##  9 soy lactosefree                26240
    ## 10 bread                          23635
    ## # … with 124 more rows
…
``` r
Brfss = 
  brfss_smart2010 %>% 
  filter(Topic == "Overall Health") %>%
  filter(Response %in% c("Excellent","Very good","Good","Fair","Poor")) %>%
  mutate(
    Response = forcats::fct_relevel(Response,c("Poor","Fair","Good","Very good","Excellent")),
    Response = as.factor(Response))
Brfss
```

    ## # A tibble: 10,625 × 23
    ##     Year Locationabbr Locationdesc  Class  Topic  Question  Response Sample_Size
    ##    <int> <chr>        <chr>         <chr>  <chr>  <chr>     <fct>          <int>
    ##  1  2010 AL           AL - Jeffers… Healt… Overa… How is y… Excelle…          94
    ##  2  2010 AL           AL - Jeffers… Healt… Overa… How is y… Very go…         148
    ##  3  2010 AL           AL - Jeffers… Healt… Overa… How is y… Good             208
    ##  4  2010 AL           AL - Jeffers… Healt… Overa… How is y… Fair             107
    ##  5  2010 AL           AL - Jeffers… Healt… Overa… How is y… Poor              45
    ##  6  2010 AL           AL - Mobile … Healt… Overa… How is y… Excelle…          91
    ##  7  2010 AL           AL - Mobile … Healt… Overa… How is y… Very go…         177
    ##  8  2010 AL           AL - Mobile … Healt… Overa… How is y… Good             224
    ##  9  2010 AL           AL - Mobile … Healt… Overa… How is y… Fair             120
    ## 10  2010 AL           AL - Mobile … Healt… Overa… How is y… Poor              66
    ## # … with 10,615 more rows, and 15 more variables: Data_value <dbl>,
    ## #   Confidence_limit_Low <dbl>, Confidence_limit_High <dbl>,
    ## #   Display_order <int>, Data_value_unit <chr>, Data_value_type <chr>,
    ## #   Data_Value_Footnote_Symbol <chr>, Data_Value_Footnote <chr>,
    ## #   DataSource <chr>, ClassId <chr>, TopicId <chr>, LocationID <chr>,
    ## #   QuestionID <chr>, RESPID <chr>, GeoLocation <chr>
…
